…
-   The benchmark for the analysis is the mean life expectancy (59.47444). I will devide the results in **high** life expectancy if it is higher than the mean or **low** if otherwise.

``` r
mean(gapminder$lifeExp)
```

    ## [1] 59.47444

``` r
gapminder %>%
  arrange(year, lifeExp) %>% 
  mutate(l_ex=ifelse(lifeExp< mean(lifeExp), "low", "high")) 
```

    ## # A tibble: 1,704 x 7
    ##          country continent  year lifeExp     pop gdpPercap  l_ex
    ##           <fctr>    <fctr> <int>   <dbl>   <int>     <dbl> <chr>
    ##  1   Afghanistan      Asia  1952  28.801 8425333  779.4453   low
    ##  2        Gambia    Africa  1952  30.000  284320  485.2307   low
    ##  3        Angola    Africa  1952  30.015 4232095 3520.6103   low
    ##  4  Sierra Leone    Africa  1952  30.331 2143249  879.7877   low
    ##  5    Mozambique    Africa  1952  31.286 6446316  468.5260   low
    ##  6  Burkina Faso    Africa  1952  31.975 4469979  543.2552   low
    ##  7 Guinea-Bissau    Africa  1952  32.500  580653  299.8503   low
    ##  8   Yemen, Rep.      Asia  1952  32.548 4963829  781.7176   low
    ##  9       Somalia    Africa  1952  32.978 2526994 1135.7498   low
    ## 10        Guinea    Africa  1952  33.609 2664249  510.1965   low
    ## # ... with 1,694 more rows
…
